<?xml version="1.0" encoding="UTF-8" standalone="no"?>
<svg
   xmlns:dc="http://purl.org/dc/elements/1.1/"
   xmlns:cc="http://creativecommons.org/ns#"
   xmlns:rdf="http://www.w3.org/1999/02/22-rdf-syntax-ns#"
   xmlns:svg="http://www.w3.org/2000/svg"
   xmlns="http://www.w3.org/2000/svg"
   xmlns:xlink="http://www.w3.org/1999/xlink"
   xmlns:sodipodi="http://sodipodi.sourceforge.net/DTD/sodipodi-0.dtd"
   xmlns:inkscape="http://www.inkscape.org/namespaces/inkscape"
   width="640"
   height="480"
   id="svg2"
   version="1.1"
   inkscape:version="0.48.3.1 r9886"
   sodipodi:docname="yamjam-logo.svg">
  <metadata
     id="metadata59">
    <rdf:RDF>
      <cc:Work
         rdf:about="">
        <dc:format>image/svg+xml</dc:format>
        <dc:type
           rdf:resource="http://purl.org/dc/dcmitype/StillImage" />
        <dc:title>Shield, wht w red border</dc:title>
      </cc:Work>
    </rdf:RDF>
  </metadata>
  <sodipodi:namedview
     pagecolor="#ffffff"
     bordercolor="#666666"
     borderopacity="1"
     objecttolerance="10"
     gridtolerance="10"
     guidetolerance="10"
     inkscape:pageopacity="0"
     inkscape:pageshadow="2"
     inkscape:window-width="1400"
     inkscape:window-height="1001"
     id="namedview57"
     showgrid="false"
     inkscape:zoom="0.49166667"
     inkscape:cx="320"
     inkscape:cy="-4.0677966"
     inkscape:window-x="0"
     inkscape:window-y="25"
     inkscape:window-maximized="1"
     inkscape:current-layer="svg2" />
  <title
     id="title4">Shield, wht w red border</title>
  <defs
     id="defs6">
    <linearGradient
       id="linearGradient3630">
      <stop
         id="stop3632"
         offset="0"
         stop-color="#d72906" />
      <stop
         id="stop3636"
         offset="1"
         stop-opacity="0.498039"
         stop-color="#684342" />
      <stop
         id="stop3634"
         offset="1"
         stop-opacity="0"
         stop-color="#000000" />
    </linearGradient>
    <linearGradient
       id="linearGradient3230">
      <stop
         id="stop3232"
         offset="0"
         stop-color="#122f14" />
      <stop
         id="stop3234"
         offset="1"
         stop-opacity="0"
         stop-color="#000000" />
    </linearGradient>
    <linearGradient
       id="linearGradient3196">
      <stop
         id="stop3226"
         offset="0"
         stop-opacity="0.338889"
         stop-color="#231949" />
      <stop
         id="stop3200"
         offset="1"
         stop-opacity="0"
         stop-color="#000000" />
    </linearGradient>
    <linearGradient
       x1="0.933677"
       y1="0.451734"
       x2="1.707159"
       y2="0.214441"
       id="linearGradient3190"
       xlink:href="#linearGradient3196" />
    <linearGradient
       x1="1.648561"
       y1="0.554038"
       x2="0.262693"
       y2="0.690199"
       id="linearGradient3236"
       xlink:href="#linearGradient3230" />
    <linearGradient
       x1="1.426442"
       y1="0.615934"
       x2="-0.299598"
       y2="0.615934"
       id="linearGradient3628"
       xlink:href="#linearGradient3630" />
    <linearGradient
       id="svg_9">
      <stop
         stop-color="#d72906"
         offset="0"
         id="svg_18" />
      <stop
         stop-color="#684342"
         stop-opacity="0.498039"
         offset="1"
         id="svg_17" />
      <stop
         stop-color="#000000"
         stop-opacity="0"
         offset="1"
         id="svg_16" />
    </linearGradient>
    <linearGradient
       id="svg_10">
      <stop
         stop-color="#122f14"
         offset="0"
         id="svg_15" />
      <stop
         stop-color="#000000"
         stop-opacity="0"
         offset="1"
         id="svg_14" />
    </linearGradient>
    <linearGradient
       id="svg_11">
      <stop
         stop-color="#231949"
         stop-opacity="0.338889"
         offset="0"
         id="svg_13" />
      <stop
         stop-color="#000000"
         stop-opacity="0"
         offset="1"
         id="svg_12" />
    </linearGradient>
    <linearGradient
       xlink:href="#svg_11"
       id="svg_8"
       y2="0.214441"
       x2="1.707159"
       y1="0.451734"
       x1="0.933677" />
    <linearGradient
       xlink:href="#svg_10"
       id="svg_6"
       y2="0.690199"
       x2="0.262693"
       y1="0.554038"
       x1="1.648561" />
    <linearGradient
       xlink:href="#svg_9"
       id="svg_3"
       y2="0.615934"
       x2="-0.299598"
       y1="0.615934"
       x1="1.426442" />
    <symbol
       id="svg_19">
      <title
         id="title35">Shield, wht w red border</title>
      <g
         id="g37">
        <title
           id="title39">Layer 1</title>
        <g
           display="inline"
           id="svg_4">
          <path
             fill="#ff0000"
             fill-rule="evenodd"
             stroke="url(#svg_8)"
             stroke-width="0.927681px"
             id="svg_7"
             d="m233.106003,46.492599c-12.660004,183.361404 56.013992,329.874435 180.276993,418.632431c2.794006,2.64801 4.009003,2.010956 6.906006,-0.262024c124.018982,-88.786011 192.554993,-235.197998 179.908997,-418.370377c-140.859985,-39.92666 -238.878998,-39.42776 -367.09198,0l0,0l0,0l-0.000015,-0.000031z" />
          <path
             fill="#ffffff"
             fill-rule="evenodd"
             stroke="url(#svg_6)"
             stroke-width="0.798279px"
             id="svg_5"
             d="m572.429688,70.014748c10.74292,160.006447 -47.53125,287.857872 -152.975952,365.310936c-2.371063,2.311462 -3.401306,1.755554 -5.859558,-0.230377c-105.239227,-77.477234 -163.394485,-205.238953 -152.662872,-365.080559c114.397308,-33.892769 202.702209,-34.405857 311.498383,0z" />
        </g>
        <g
           display="none"
           id="svg_1">
          <path
             fill="url(#svg_3)"
             fill-rule="nonzero"
             stroke-miterlimit="4"
             id="svg_2"
             d="m64.991989,44.079288l0,17.4375l-16.937489,0l0,23.937489l16.937489,0l0,17.75l23.968758,0l0,-17.75l18.1875,0l0,-23.937489l-18.1875,0l0,-17.4375l-23.968758,0z" />
        </g>
      </g>
    </symbol>
  </defs>
  <g
     id="g46">
    <title
       id="title48">Layer 1</title>
    <g
       id="layer1"
       display="inline">
      <path
         d="m215.1745,73.575394c-13.241562,171.547943 58.587097,308.621536 188.55835,391.661087c2.922333,2.477417 4.193176,1.881439 7.223236,-0.245087c129.716034,-83.065796 201.40036,-220.044891 188.173431,-391.416c-147.330627,-37.354305 -249.852325,-36.887543 -383.955017,0l0,0l0,0z"
         id="path2391"
         stroke-width="0.927681px"
         stroke="url(#linearGradient3190)"
         fill-rule="evenodd"
         fill="#0000ff" />
      <path
         d="m570.085632,95.582077c11.23645,149.697678 -49.714661,269.311996 -160.003174,341.774979c-2.47998,2.162598 -3.557556,1.642487 -6.128723,-0.215485c-110.073578,-72.485626 -170.900314,-192.016022 -159.67572,-341.559494c119.652374,-31.709156 212.013702,-32.189186 325.807617,0z"
         id="path2400"
         stroke-width="0.798279px"
         stroke="url(#linearGradient3236)"
         fill-rule="evenodd"
         fill="#0000ff" />
    </g>
    <g
       id="layer3"
       display="none">
      <path
         d="m64.991989,44.079288l0,17.4375l-16.937489,0l0,23.937489l16.937489,0l0,17.75l23.968758,0l0,-17.75l18.1875,0l0,-23.937489l-18.1875,0l0,-17.4375l-23.968758,0z"
         id="rect3590"
         stroke-miterlimit="4"
         fill-rule="nonzero"
         fill="url(#linearGradient3628)" />
    </g>
    <use
       id="svg_20"
       xlink:href="#svg_19"
       transform="matrix(0.908594,0,0,0.908594,-626.724,-142.74) "
       y="202.899399"
       x="721.798462" />
    <text
       font-weight="bold"
       xml:space="preserve"
       text-anchor="middle"
       font-family="serif"
       font-size="100"
       id="svg_21"
       y="1700"
       x="400"
       stroke-width="0"
       stroke="#000000"
       fill="#ffff00">GCE</text>
  </g>
  <flowRoot
     xml:space="preserve"
     id="flowRoot3036"
     style="font-size:24.48859406px;font-style:oblique;font-variant:normal;font-weight:bold;font-stretch:normal;text-align:start;line-height:125%;letter-spacing:0px;word-spacing:0px;writing-mode:lr-tb;text-anchor:start;fill:#000000;fill-opacity:1;stroke:none;font-family:DejaVu Sans;-inkscape-font-specification:DejaVu Sans Bold Oblique"
     transform="matrix(6.9621489,0,0,11.071485,-536.52234,3807.1667)"
     inkscape:transform-center-y="-30.508474"><flowRegion
       id="flowRegion3038"><rect
         id="rect3040"
         width="402.71185"
         height="250.16949"
         x="124.06779"
         y="-341.69492"
         style="font-size:24.48859406px;font-style:oblique;font-variant:normal;font-weight:bold;font-stretch:normal;text-align:start;line-height:125%;writing-mode:lr-tb;text-anchor:start;font-family:DejaVu Sans;-inkscape-font-specification:DejaVu Sans Bold Oblique" /></flowRegion><flowPara
       id="flowPara3042"
       style="font-size:24.48859406px;font-style:oblique;font-variant:normal;font-weight:bold;font-stretch:normal;text-align:start;line-height:125%;writing-mode:lr-tb;text-anchor:start;font-family:DejaVu Sans;-inkscape-font-specification:DejaVu Sans Bold Oblique">yJ</flowPara></flowRoot></svg>
